Labelcode;Label;Kurzname;Hersteller;Rechterückrufe
3269;CAPRICORN/SONY;CPI;Sony Music Entertainment Germany GmbH;R2
6667;SONY;;Sony Music Entertainment Germany GmbH;R2
46477;SONYA STEAD;;SONYA STEAD;
94372;SONYA TITUS;;Sonya Titus;
10879;SONY BMG CATALOG;SBC;Sony Music Entertainment Germany GmbH;R2
13989;SONY BMG MUSIC UK;;Sony Music Entertainment Germany GmbH;R2
35340;SONYC-BYO-HAZARD;;SONYC-BYO-HAZARD;
6868;Sony Classical;;Sony Music Entertainment Germany GmbH;R2
2423;SONY MASTERWORKS;SMW;Sony Music Entertainment Germany GmbH;R2
2604;SONY MUSIC MEDIA;SMM;Sony Music Entertainment Germany GmbH;R2
25887;Ken Warner;;ORCHARD ENTERPRISES NY, INC.;
29801;Made Jour Label excl. to Downbeat/Warner Music;;WARNER MUSIC Group Germany Holding GmbH;R1, R2, R6, R9, R12, R13
90681;Max Warner;;Max Warner;
392;Warner Bros. Records;WB;WARNER MUSIC Group Germany Holding GmbH;R1, R2, R6, R9, R12, R13
1635;WARNER BROS./RHINO;;WARNER MUSIC Group Germany Holding GmbH;R1, R2, R6, R9, R12, R13
33082;Warner/Chappell;;Warner/Chappell;
29705;WARNER CHAPPELL MUSIC ITALIANA;;Warner/Chappell Production Music GmbH;
2822;WARNER CLASSICS;;WARNER MUSIC Group Germany Holding GmbH;R1, R2, R6, R9, R12, R13
40000;Warner-EMI - PLG;;Warner/Emi;
40001;Warner-EMI - PLG Classics;;Warner/Emi;
18955;Aggro Berlin Universal Music;;Universal Music Entertainment GmbH;R6
52360;Bitstream Universal Music;;Universal Music Entertainment GmbH;R6
27975;Koch Universal Music Austria;;Universal Music Entertainment GmbH;R6
29100;Nesola Universal Music;;Universal Music Entertainment GmbH;R6
50415;Universal Music Classics;;Deutsche Grammophon GmbH;R6
15305;Universal Music Digital;;Universal Music Entertainment GmbH;R6
